[{
    "name": "Александров Игнат Анатолиевич",
    "inGame": false
 },
 {
     "name": "Василенко Эрик Платонович",
     "inGame": true
 },
 {
     "name": "Быков Юрий Виталиевич",
     "inGame": false
 },
 {
     "name": "Галкин Феликс Платонович",
     "inGame": true
 },
 {
     "name": "Комаров Цефас Александрович",
     "inGame": true
 },
 {
     "name": "Шевченко Рафаил Михайлович",
     "inGame": true
 },
 {
     "name": "Гордеев Шамиль Леонидович",
     "inGame": false
 },
 {
     "name": "Бобров Фёдор Викторович",
     "inGame": false
 },
 {
     "name": "Суворов Феликс Григорьевич",
     "inGame": true
 },
 {
     "name": "Марков Йошка Фёдорович",
     "inGame": false
 }]